{
  "MRData": {
    "xmlns": "http://ergast.com/mrd/1.4",
    "series": "f1",
    "url": "http://ergast.com/api/f1/drivers.json",
    "limit": "10",
    "offset": "20",
    "total": "844",
    "DriverTable": {
      "Drivers": [
        {
          "driverId": "andersson",
          "url": "http://en.wikipedia.org/wiki/Conny_Andersson_(racing_driver)",
          "givenName": "Conny",
          "familyName": "Andersson",
          "dateOfBirth": "1939-12-28",
          "nationality": "Swedish"
        },
        {
          "driverId": "andretti",
          "url": "http://en.wikipedia.org/wiki/Michael_Andretti",
          "givenName": "Michael",
          "familyName": "Andretti",
          "dateOfBirth": "1962-10-05",
          "nationality": "American"
        },
        {
          "driverId": "mario_andretti",
          "url": "http://en.wikipedia.org/wiki/Mario_Andretti",
          "givenName": "Mario",
          "familyName": "Andretti",
          "dateOfBirth": "1940-02-28",
          "nationality": "American"
        },
        {
          "driverId": "andrews",
          "url": "http://en.wikipedia.org/wiki/Keith_Andrews_(driver)",
          "givenName": "Keith",
          "familyName": "Andrews",
          "dateOfBirth": "1920-06-15",
          "nationality": "American"
        },
        {
          "driverId": "apicella",
          "url": "http://en.wikipedia.org/wiki/Marco_Apicella",
          "givenName": "Marco",
          "familyName": "Apicella",
          "dateOfBirth": "1965-10-07",
          "nationality": "Italian"
        },
        {
          "driverId": "armi",
          "url": "http://en.wikipedia.org/wiki/Frank_Armi",
          "givenName": "Frank",
          "familyName": "Armi",
          "dateOfBirth": "1918-10-12",
          "nationality": "American"
        },
        {
          "driverId": "arnold",
          "url": "http://en.wikipedia.org/wiki/Chuck_Arnold",
          "givenName": "Chuck",
          "familyName": "Arnold",
          "dateOfBirth": "1926-05-30",
          "nationality": "American"
        },
        {
          "driverId": "arnoux",
          "url": "http://en.wikipedia.org/wiki/Ren%C3%A9_Arnoux",
          "givenName": "René",
          "familyName": "Arnoux",
          "dateOfBirth": "1948-07-04",
          "nationality": "French"
        },
        {
          "driverId": "arundell",
          "url": "http://en.wikipedia.org/wiki/Peter_Arundell",
          "givenName": "Peter",
          "familyName": "Arundell",
          "dateOfBirth": "1933-11-08",
          "nationality": "British"
        },
        {
          "driverId": "ascari",
          "url": "http://en.wikipedia.org/wiki/Alberto_Ascari",
          "givenName": "Alberto",
          "familyName": "Ascari",
          "dateOfBirth": "1918-07-13",
          "nationality": "Italian"
        }
      ]
    }
  }
}